2 - Exploring Models · GEMS.jl
…
A more comprehensive overview of the individuals in a population can be achieved via the Population-object. The example below generates a dataframe with one row per individual in the population:

using GEMS
sim = Simulation()
pop = population(sim)
dataframe(pop)
Output

[ Info: 21:40:37 | Initializing Simulation [Simulation 3] with default configuration 
and one custom parameter.
[ Info: 21:40:37 | └ Creating population
[ Info: 21:40:39 | └ Creating simulation object
100000×10 DataFrame
    Row │ id      sex   age   number_of_vaccinations  vaccination_tick  education  ⋯
        │ Int32   Int8  Int8  Int8                    Int16             Int8       ⋯
────────┼─────────────────────────────────────────────────────────────────────────────
      1 │      1     2    43                       0                -1         -1  ⋯
      2 │      2     1    50                       0                -1         -1  ⋯
   ⋮    │   ⋮      ⋮     ⋮              ⋮                    ⋮              ⋮          ⋮ 
  99999 │  99999     1     5                       0                -1         -1  ⋯  
 100000 │ 100000     1    42                       0                -1         -1  ⋯ 
99996 rows omitted   
…
