4 - Running Batches · GEMS.jl
…
bd = BatchData(b, rd_style = "DefaultResultData")
rns = runs(bd)
infections(rns[1])
Output

[ Info: 23:38:51 | Processing Simulation 1/5 in Batch
[ Info: 23:38:55 | Processing Simulation 2/5 in Batch
[ Info: 23:38:59 | Processing Simulation 3/5 in Batch
[ Info: 23:39:03 | Processing Simulation 4/5 in Batch
[ Info: 23:39:07 | Processing Simulation 5/5 in Batch
        23:39:12 | └ Done                                                            
75363×47 DataFrame
   Row │ infection_id  tick   id_a   id_b    infectious_tick  removed_tick  ⋯
       │ Int32         Int16  Int32  Int32   Int16            Int16         ⋯ 
       ┼───────────────────────────────────────────────────────────────────────
     1 │         1134     17  88197       1               17                ⋯    
     2 │        35969     56  59946       2               60                ⋯
    ⋮  |      ⋮          ⋮      ⋮      ⋮            ⋮              ⋮            ⋮     
 75362 │        36576     56  22625   99999               56
 75363 │         7133     34  92825  100000               36                ⋯
38 columns and 75359 rows omitted
…
