7 - Logging & Post-Processing · GEMS.jl
…
using GEMS
sim = Simulation()
run!(sim)
inf_logger = infectionlogger(sim)
dataframe(inf_logger)
Output

[ Info: 23:40:26 | Initializing Simulation [Simulation 79] with default configuration 
[ Info: 23:40:26 | └ Creating population
[ Info: 23:40:28 | └ Creating simulation object
[ Info: 23:40:29 | Running Simulation Simulation 79
100.0%┣████████████████████████████████████████┫ 365 days/365 days [00:29<00:00, 13 days/s]
75908×19 DataFrame
   Row │ infection_id  tick   id_a   id_b   infectious_tick  removed_tick  death_tick  ⋯
       │ Int32         Int16  Int32  Int32  Int16            Int16         Int16       ⋯
───────┼───────────────────────────────────────────────────────────────────────────────────
     1 │            1      0     -1  74571                5            13          -1   ⋯         
     2 │            2      0     -1  48307                1             7          -1   ⋯  
   ⋮   │      ⋮          ⋮      ⋮      ⋮           ⋮              ⋮            ⋮             ⋮ 
 75907 │        75907    177   4685  36171              177           183          -1   ⋯ 
 75908 │        75908    181   4685  33557              185           191          -1   ⋯  
                                                        10 columns and 75904 rows omitted
…
using GEMS
sim = Simulation()
run!(sim)
pp = PostProcessor(sim)

infectionsDF(pp)
Output

[ Info: 23:41:39 | Initializing Simulation [Simulation 80] with default configuration 
[ Info: 23:41:39 | └ Creating population
[ Info: 23:41:40 | └ Creating simulation object
[ Info: 23:41:41 | Running Simulation Simulation 80
100.0%┣█████████████████████████████████████████┫ 365 days/365 days [00:57<00:00, 6 days/s]
75798×47 DataFrame
Row │ infection_id  tick   id_a   id_b    infectious_tick  removed_tick  ⋯
    │ Int32         Int16  Int32  Int32   Int16            Int16         ⋯
    ┼────────────────────────────────────────────────────────────────────────
  1 │         7180     36  61265       1               38            44  ⋯    
  2 │        71586     88  77749       2               91            98  ⋯
⋮     │        ⋮          ⋮      ⋮      ⋮                 ⋮              ⋮      
75798 │        42048     60  61117  100000             64            72  ⋯      
38 columns and 75794 rows omitted
…
using GEMS
sim = Simulation()
run!(sim)
pp = PostProcessor(sim)

effectiveR(pp)
Output

[ Info: 23:43:16 | Initializing Simulation [Simulation 81] with default configuration 
[ Info: 23:43:16 | └ Creating population
[ Info: 23:43:18 | └ Creating simulation object
[ Info: 23:43:19 | Running Simulation Simulation 81
100.0%┣█████████████████████████████████████████┫ 365 days/365 days [01:25<00:00, 4 days/s]
365×7 DataFrame
 Row │ tick   effective_R  in_hh_effective_R  out_hh_effective_R  rolling_R   ⋯  
     │ Int64  Float64      Float64            Float64             Float64     ⋯  
─────┼──────────────────────────────────────────────────────────────────────────
   1 │     1      2.21429           0.571429            1.64286     2.21429   ⋯  
   2 │     2      1.45833           0.541667            0.916667    1.83631   ⋯  
  ⋮  │   ⋮         ⋮               ⋮                  ⋮               ⋮           
 364 │   364      0.0               0.0                 0.0         0.0       ⋯  
 365 │   365      0.0               0.0                 0.0         0.0       ⋯  
361 rows omitted
…
sim = Simulation()
run!(sim)
pp = PostProcessor(sim)

old_infects_young(pp)
Output

[ Info: 23:45:19 | Initializing Simulation [Simulation 82] with default configuration 
[ Info: 23:45:19 | └ Creating population
[ Info: 23:45:21 | └ Creating simulation object
[ Info: 23:45:22 | Running Simulation Simulation 82
100.0███████████████████████████████████████████┫ 365 days/365 days [00:54<00:00, 7 days/s]
143×2 DataFrame
 Row │ tick   count 
     │ Int16  Int64
─────┼──────────────
   1 │     0      3
   2 │     1      7
   ⋮  │   ⋮      ⋮
 142 │   155      1
 143 │   171      1
    139 rows omitted
We advise doing any post-processing via the PostProcessor infrastructure whenever possible, as this will make it very easy to forward you custom results to a custom ResultData object. These things will be explained in the subsequent sections.
The ResultData object
ResultData collects post-processed simulation results for analysis and plotting. It can be created from a Simulation, a PostProcessor, multiple simulations/postprocessors, or a Batch. For example, you can access the cumulative cases directly from the ResultData object like this:

using GEMS
sim = Simulation()
run!(sim)
rd = ResultData(sim)
cumulative_cases(rd)
Output

366×4 DataFrame
 Row │ exposed_cum  infectious_cum  recovered_cum  deaths_cum 
     │ Int64        Int64           Int64          Int64      
─────┼────────────────────────────────────────────────────────
   1 │         100               0              0           0
   2 │         116              42              0           0
   3 │         137              70              0           0
   4 │         164              97              2           0
   5 │         204             130              6           0
  ⋮  │      ⋮             ⋮               ⋮            ⋮
 363 │       75971           75971          74821        1150
 364 │       75971           75971          74821        1150
 365 │       75971           75971          74821        1150
 366 │       75971           75971          74821        1150
                                              357 rows omitted
…
# 5. Define new functions to access custom data
old_infects_young(rd::ResultData) = rd.data["dataframes"]["old_infects_young"]

# 6. Access custom and built-in fields
label(rd)
Output

"Test Simulation"
and 

old_infects_young(rd)
Output

139×2 DataFrame
 Row │ tick   count 
     │ Int16  Int64
─────┼──────────────
   1 │     1      3
   2 │     2     11
   3 │     3     20
   4 │     4     14
   5 │     5     23
  ⋮  │   ⋮      ⋮
 136 │   138      1
 137 │   139      2
 138 │   141      1
 139 │   143      1
    130 rows omitted
…
The ResultData object now contains a dataframe that contains the collected data of the custom logger with one column per argument function that was passed to the CustomLogger(...)

customlogger(rd)
Output

365×2 DataFrame
 Row │ infected_in_large_households  tick 
     │ Any                           Any
─────┼────────────────────────────────────
   1 │ 82                            0
   2 │ 92                            1
  ⋮  │              ⋮                 ⋮
 364 │ 0                             363
 365 │ 0                             364
                          361 rows omitted
…
